../Core/Src/BMP280_c/bmp280.c:55:6:bmp280_init_default_params	16	static
../Core/Src/BMP280_c/bmp280.c:64:13:read_register16	48	static
../Core/Src/BMP280_c/bmp280.c:78:19:read_data	56	static
../Core/Src/BMP280_c/bmp280.c:89:13:read_calibration_data	16	static
../Core/Src/BMP280_c/bmp280.c:111:13:read_hum_calibration_data	24	static
../Core/Src/BMP280_c/bmp280.c:129:12:write_register8	40	static
../Core/Src/BMP280_c/bmp280.c:140:6:bmp280_init	24	static
../Core/Src/BMP280_c/bmp280.c:205:6:bmp280_force_measurement	24	static
../Core/Src/BMP280_c/bmp280.c:217:6:bmp280_is_measuring	24	static
../Core/Src/BMP280_c/bmp280.c:232:23:compensate_temperature	32	static
../Core/Src/BMP280_c/bmp280.c:251:24:compensate_pressure	336	static
../Core/Src/BMP280_c/bmp280.c:281:24:compensate_humidity	32	static
../Core/Src/BMP280_c/bmp280.c:300:6:bmp280_read_fixed	56	static
../Core/Src/BMP280_c/bmp280.c:334:6:bmp280_read_float	40	static
